<?xml version="1.0" encoding="UTF-8"?>
<svg width="110px" height="24px" viewBox="0 0 110 24" version="1.1" xmlns="http://www.w3.org/2000/svg" xmlns:xlink="http://www.w3.org/1999/xlink">
    <title></title>
    <g id="Password-strength" stroke="none" stroke-width="1" fill="none" fill-rule="evenodd">
        <g id="Password-strength-/-Requirement---Default">
            <g id="Icons-/-🖼-Dynamic-Icon" transform="translate(6.999983, 11.499996)" fill="#6A6E73">
                <g id="🖼-Icon" transform="translate(-0.000000, 0.000000)">
                    <path d="M9.74997675,2.24999464 C10.1641146,2.24999464 10.499975,1.91413423 10.499975,1.5 L10.499975,0.749998212 C10.499975,0.335860405 10.1641146,0 9.74997675,0 L0.749998212,0 C0.335860405,0 8.8817842e-16,0.335860405 8.8817842e-16,0.749998212 L8.8817842e-16,1.5 C8.8817842e-16,1.91413423 0.335860405,2.24999464 0.749998212,2.24999464 L9.74997675,2.24999464 Z" id="minus"></path>
                </g>
                <rect id="🎨-Color" x="-1.99998331" y="-0.499996424" width="13.9999666" height="2.99999285"></rect>
            </g>
            <text id="Requirement" font-family="RedHatText-Regular, Red Hat Text" font-size="14" font-weight="normal" line-spacing="21" fill="#151515">
                <tspan x="28" y="16">Requirement</tspan>
            </text>
        </g>
    </g>
</svg>